<svg width="136pt" height="305pt"
 viewBox="0.00 0.00 136.07 305.40" xmlns="http://www.w3.org/2000/svg" xmlns:xlink="http://www.w3.org/1999/xlink">
<g id="graph0" class="graph" transform="scale(1 1) rotate(0) translate(4 301.397)">
<title>%3</title>
<polygon fill="white" stroke="none" points="-4,4 -4,-301.397 132.074,-301.397 132.074,4 -4,4"/>
<!-- i0 -->
<g id="node1" class="node"><title>i0</title>
<ellipse fill="lightgreen" stroke="black" cx="80.0739" cy="-279.397" rx="18" ry="18"/>
</g>
<!-- e0 -->
<g id="node2" class="node"><title>e0</title>
<ellipse fill="none" stroke="black" cx="25.0739" cy="-192.397" rx="18" ry="18"/>
</g>
<!-- i0&#45;&#45;e0 -->
<g id="edge1" class="edge"><title>i0&#45;&#45;e0</title>
<path fill="none" stroke="black" d="M70.7439,-263.978C60.6301,-248.347 44.5813,-223.545 34.4497,-207.887"/>
<text text-anchor="middle" x="63.0739" y="-232.197" font-family="Times,serif" font-size="14.00">⚂⚃</text>
</g>
<!-- i1 -->
<g id="node3" class="node"><title>i1</title>
<ellipse fill="none" stroke="black" cx="80.0739" cy="-192.397" rx="18" ry="18"/>
</g>
<!-- i0&#45;&#45;i1 -->
<g id="edge2" class="edge"><title>i0&#45;&#45;i1</title>
<path fill="none" stroke="black" d="M80.0739,-261.196C80.0739,-246.449 80.0739,-225.312 80.0739,-210.572"/>
<text text-anchor="middle" x="88.0739" y="-232.197" font-family="Times,serif" font-size="14.00">⚀⚁</text>
</g>
<!-- e1 -->
<g id="node4" class="node"><title>e1</title>
<ellipse fill="none" stroke="black" cx="46.0739" cy="-105.397" rx="18" ry="18"/>
</g>
<!-- e0&#45;&#45;e1 -->
<g id="edge3" class="edge"><title>e0&#45;&#45;e1</title>
<path fill="none" stroke="black" d="M23.3541,-174.431C22.8642,-164.609 23.1142,-152.109 26.0739,-141.397 28.1241,-133.976 32.105,-126.471 35.9789,-120.323"/>
<text text-anchor="middle" x="34.0739" y="-145.197" font-family="Times,serif" font-size="14.00">⚀⚁</text>
</g>
<!-- i1&#45;&#45;e1 -->
<g id="edge4" class="edge"><title>i1&#45;&#45;e1</title>
<path fill="none" stroke="black" d="M73.6787,-175.409C67.6001,-160.212 58.5095,-137.486 52.4403,-122.313"/>
<text text-anchor="middle" x="73.0739" y="-145.197" font-family="Times,serif" font-size="14.00">⚄⚅</text>
</g>
<!-- i2 -->
<g id="node5" class="node"><title>i2</title>
<ellipse fill="none" stroke="black" cx="103.074" cy="-105.397" rx="18" ry="18"/>
</g>
<!-- i1&#45;&#45;i2 -->
<g id="edge5" class="edge"><title>i1&#45;&#45;i2</title>
<path fill="none" stroke="black" d="M84.6179,-174.604C88.6763,-159.605 94.5861,-137.765 98.6175,-122.866"/>
<text text-anchor="middle" x="101.074" y="-145.197" font-family="Times,serif" font-size="14.00">⚂⚃</text>
</g>
<!-- e2 -->
<g id="node6" class="node"><title>e2</title>
<ellipse fill="none" stroke="black" cx="46.0739" cy="-18.1984" rx="18.399" ry="18.399"/>
<text text-anchor="middle" x="46.0739" y="-14.4984" font-family="Times,serif" font-size="14.00">♟️</text>
</g>
<!-- e1&#45;&#45;e2 -->
<g id="edge6" class="edge"><title>e1&#45;&#45;e2</title>
<path fill="none" stroke="black" d="M46.0739,-87.1556C46.0739,-72.3741 46.0739,-51.188 46.0739,-36.4139"/>
<text text-anchor="middle" x="54.0739" y="-58.1968" font-family="Times,serif" font-size="14.00">⚂⚃</text>
</g>
<!-- i2&#45;&#45;i0 -->
<g id="edge8" class="edge"><title>i2&#45;&#45;i0</title>
<path fill="none" stroke="black" d="M108.712,-122.575C110.48,-128.429 112.197,-135.138 113.074,-141.397 113.999,-147.999 113.443,-149.74 113.074,-156.397 110.912,-195.433 113.996,-206.864 100.074,-243.397 97.3824,-250.46 93.4023,-257.793 89.6998,-263.91"/>
<text text-anchor="middle" x="120.074" y="-188.697" font-family="Times,serif" font-size="14.00">⚄⚅</text>
</g>
<!-- i2&#45;&#45;e2 -->
<g id="edge7" class="edge"><title>i2&#45;&#45;e2</title>
<path fill="none" stroke="black" d="M93.4046,-89.944C82.923,-74.2771 66.2907,-49.4166 55.7906,-33.722"/>
<text text-anchor="middle" x="85.0739" y="-58.1968" font-family="Times,serif" font-size="14.00">⚀⚁</text>
</g>
<!-- e2&#45;&#45;e0 -->
<g id="edge9" class="edge"><title>e2&#45;&#45;e0</title>
<path fill="none" stroke="black" d="M34.2906,-32.6846C23.7767,-45.6837 9.13499,-66.4195 3.07388,-87.3968 -5.89105,-118.424 7.68137,-155.63 17.1677,-176.069"/>
<text text-anchor="middle" x="11.0739" y="-101.697" font-family="Times,serif" font-size="14.00">⚄⚅</text>
</g>
</g>
</svg>
